…
```
> tidy_df

# A tibble: 11,880 x 4
# Groups:   activity, subject [180]
   activity subject measurement           average
   <fct>    <fct>   <fct>                   <dbl>
 1 WALKING  1       fBodyAcc-mean()-X     -0.203 
 2 WALKING  1       fBodyAcc-mean()-Y      0.0897
 3 WALKING  1       fBodyAcc-mean()-Z     -0.332 
 4 WALKING  1       fBodyAcc-std()-X      -0.319 
 5 WALKING  1       fBodyAcc-std()-Y       0.0560
 6 WALKING  1       fBodyAcc-std()-Z      -0.280 
 7 WALKING  1       fBodyAccJerk-mean()-X -0.171 
 8 WALKING  1       fBodyAccJerk-mean()-Y -0.0352
 9 WALKING  1       fBodyAccJerk-mean()-Z -0.469 
10 WALKING  1       fBodyAccJerk-std()-X  -0.134 
# ... with 11,870 more rows
```
